; Engine configuration file.
; It's best edited using the editor UI and not directly,
; since the parameters that go here are not all obvious.
;
; Format:
;   [section] ; section goes between []
;   param=value ; assign values to parameters

config_version=5

[application]

config/name="Notepad"
run/main_scene="res://text_edit.tscn"
config/features=PackedStringArray("4.1", "GL Compatibility")
config/icon="res://icon.svg"

[rendering]

renderer/rendering_method="gl_compatibility"
renderer/rendering_method.mobile="gl_compatibility"
textures/vram_compression/import_etc2_astc=true
environment/defaults/default_clear_color=Color(0.611765, 0.611765, 0.611765, 1)
