{
	"backtrace" : 0,
	"backtraceGraph" : 
	{
		"commands" : [],
		"files" : 
		[
			"CMakeLists.txt"
		],
		"nodes" : 
		[
			{
				"file" : 0
			}
		]
	},
	"id" : "constractor_and_decons_autogen_timestamp_deps::@6890427a1f51a3e7e1df",
	"isGeneratorProvided" : true,
	"name" : "constractor_and_decons_autogen_timestamp_deps",
	"paths" : 
	{
		"build" : ".",
		"source" : "."
	},
	"sourceGroups" : 
	[
		{
			"name" : "",
			"sourceIndexes" : 
			[
				0
			]
		},
		{
			"name" : "CMake Rules",
			"sourceIndexes" : 
			[
				1
			]
		}
	],
	"sources" : 
	[
		{
			"backtrace" : 0,
			"isGenerated" : true,
			"path" : "/home/plas9a/code-git/qt/build-constractor_and_decons-Desktop_Qt_6_0_3_GCC_64bit-Debug/CMakeFiles/constractor_and_decons_autogen_timestamp_deps",
			"sourceGroupIndex" : 0
		},
		{
			"backtrace" : 0,
			"isGenerated" : true,
			"path" : "/home/plas9a/code-git/qt/build-constractor_and_decons-Desktop_Qt_6_0_3_GCC_64bit-Debug/CMakeFiles/constractor_and_decons_autogen_timestamp_deps.rule",
			"sourceGroupIndex" : 1
		}
	],
	"type" : "UTILITY"
}
