{
	"configurations" : 
	[
		{
			"directories" : 
			[
				{
					"build" : ".",
					"minimumCMakeVersion" : 
					{
						"string" : "3.14"
					},
					"projectIndex" : 0,
					"source" : ".",
					"targetIndexes" : 
					[
						0,
						1,
						2
					]
				}
			],
			"name" : "Debug",
			"projects" : 
			[
				{
					"directoryIndexes" : 
					[
						0
					],
					"name" : "learn",
					"targetIndexes" : 
					[
						0,
						1,
						2
					]
				}
			],
			"targets" : 
			[
				{
					"directoryIndex" : 0,
					"id" : "learn::@6890427a1f51a3e7e1df",
					"jsonFile" : "target-learn-Debug-f257499b61e89f3cac11.json",
					"name" : "learn",
					"projectIndex" : 0
				},
				{
					"directoryIndex" : 0,
					"id" : "learn_autogen::@6890427a1f51a3e7e1df",
					"jsonFile" : "target-learn_autogen-Debug-7641c43e58b0fd7239f3.json",
					"name" : "learn_autogen",
					"projectIndex" : 0
				},
				{
					"directoryIndex" : 0,
					"id" : "learn_autogen_timestamp_deps::@6890427a1f51a3e7e1df",
					"jsonFile" : "target-learn_autogen_timestamp_deps-Debug-e0421e160e7736e701e6.json",
					"name" : "learn_autogen_timestamp_deps",
					"projectIndex" : 0
				}
			]
		}
	],
	"kind" : "codemodel",
	"paths" : 
	{
		"build" : "/home/plas9a/code-git/qt/build-learn-Desktop_Qt_6_0_3_GCC_64bit-Debug",
		"source" : "/home/plas9a/code-git/qt/learn"
	},
	"version" : 
	{
		"major" : 2,
		"minor" : 2
	}
}
